A02E A01 	 A02B X13
A02D A01 	 A03A X13
A03A E04 	 A06A X05
A03A E02 	 A06A X06
H02A B16 	 A07E A06
C10A X04 	 A10B X06
B01A X02 	 B01A E01
B01A X03 	 B01A E02
B01A X06 	 B01A F01
C01E B19 	 B06A C02
C01E B12 	 C01B D06
R03C A02 	 C01C A26
D03A X07 	 C05A E01
C10A A52 	 C10B A01
C10A A51 	 C10B X01
C10A A53 	 C10B X02
C10A A55 	 C10B X03
D11A X14 	 D11A H01
D11A X15 	 D11A H02
D11A X19 	 D11A H04
G03A C03 	 G03A D01
G03D C05 	 G03C X01
A11C C07 	 H05B X02
J01D A01 	 J01D B01
J01D A02 	 J01D B02
J01D A03 	 J01D B03
J01D A04 	 J01D B04
J01D A09 	 J01D B05
J01D A15 	 J01D B06
J01D A21 	 J01D B07
J01D A30 	 J01D B08
J01D A31 	 J01D B09
J01D A34 	 J01D B10
J01D A35 	 J01D B11
J01D A36 	 J01D B12
J01D A05 	 J01D C01
J01D A06 	 J01D C02
J01D A07 	 J01D C03
J01D A08 	 J01D C04
J01D A14 	 J01D C05
J01D A17 	 J01D C06
J01D A19 	 J01D C07
J01D A38 	 J01D C08
J01D A40 	 J01D C09
J01D A41 	 J01D C10
J01D A10 	 J01D D01
J01D A11 	 J01D D02
J01D A12 	 J01D D03
J01D A13 	 J01D D04
J01D A16 	 J01D D05
J01D A18 	 J01D D06
J01D A22 	 J01D D07
J01D A23 	 J01D D08
J01D A25 	 J01D D09
J01D A26 	 J01D D10
J01D A27 	 J01D D11
J01D A32 	 J01D D12
J01D A33 	 J01D D13
J01D A39 	 J01D D14
J01D A42 	 J01D D15
J01D A63 	 J01D D54
J01D A24 	 J01D E01
J01D A37 	 J01D E02
G04A H02 	 J01E B20
J01F A04 	 J01F G01
G04A B01 	 J01M B02
G04A B02 	 J01M B03
G04A B03 	 J01M B04
G04A B04 	 J01M B05
G04A B05 	 J01M B06
G04A B06 	 J01M B07
G04A H01 	 J01R A02
G04A C01 	 J01X E01
G04A C02 	 J01X E02
G04A A01 	 J01X X05
G04A G05 	 J01X X06
G04A G06 	 J01X X07
J05A F30 	 J05A R
J05A E06 	 J05A R10
L03A X06 	 L01X C01
L01X X21 	 L01X C02
L01X X28 	 L01X E01
L01X X31 	 L01X E02
L01X X34 	 L01X E03
B01A C14 	 L01X X35
J05A B54 	 L03A B60
L04A A07 	 L03A X13
L01X C04 	 L04A A34
L04A A11 	 L04A B01
L04A A12 	 L04A B02
L04A A16 	 L04A B03
L04A A17 	 L04A B04
L04A A08 	 L04A C01
L04A A09 	 L04A C02
L04A A14 	 L04A C03
L04A A01 	 L04A D01
L04A A05 	 L04A D02
C04A X13 	 N04B C08
N01A X01 	 N05A D08
N05A X09 	 N05A H06
N05C M17 	 N05C H01
N07B A02 	 N06A X12
N07A A04 	 N06D A01
N07A A05 	 N06D A02
N07A A06 	 N06D A03
N06B X19 	 N06D X02
V03A A01 	 N07B B01
V03A A03 	 N07B B03
V03A B30 	 N07B B04
N02A C02 	 N07B C02
N02A C06 	 N07B C03
N02A A09 	 N07B C06
P01B A05 	 P01B C02
P01B E52 	 P01B F01
R06A E08 	 R06A E09
S01E X03 	 S01E E01
L01X D02 	 S01L A01
